


================================================================
https://www.teamos-hkrg.com/index.php?members/amir_tariq.523627/
=================================================================
My other uploads
https://douploads.com/users/amirtariq
=================================================================
To earn Money
sahre data using doupload
https://douploads.com/free24544.html
=================================================================